Workshop: Data science with R
…
.pr[

```r
(money <- haven::read_dta("datasets/money.dta"))
```

```
## # A tibble: 24 x 3
##        y     m     i
##    <dbl> <dbl> <dbl>
##  1  506.  142.  3.25
##  2  525.  146.  2.61
##  3  565   149.  2.91
##  4  597.  155.  3.25
##  5  638.  162.  3.69
##  6  691.  170.  4.05
##  7  756   174.  5.08
##  8  800.  185.  4.63
##  9  873.  199.  5.47
## 10  944   206.  6.85
## # … with 14 more rows
```
…
