Workshop: Data science with R
…
---
## `_all()`

Example: `mutate_all()`

```r
findex %>%
    mutate_all(.funs = ~as.character(.))
```

```
## # A tibble: 15,492 x 32
##    economy economycode regionwb pop_adult wpid_random wgt   female age  
##    <chr>   <chr>       <chr>    <chr>     <chr>       <chr> <chr>  <chr>
##  1 Mozamb… MOZ         Sub-Sah… 15850773  141162711   0.78… Female 2    
##  2 Ukraine UKR         Europe … 38149932  197500379   1.46… Female 26   
##  3 Gabon   GAB         Sub-Sah… 1269789   146060394   0.30… Male   18   
##  4 Venezu… VEN         Latin A… 22762362  147928189   0.55… Female 41   
##  5 Rwanda  RWA         Sub-Sah… 7094419   179789279   1.65… Male   36   
##  6 Monten… MNE         Europe … 509031.5… 202078829   0.32… Female 39   
##  7 Morocco MAR         Middle … 25550170  13836       0.42… Female 15   
##  8 Cambod… KHM         East As… 10814416  117109019   0.82… Male   36   
##  9 Bolivia BOL         Latin A… 7400247   116466964   0.73… Female 12   
## 10 Centra… CAF         Sub-Sah… 2595884   119279387   1.07… Male   8    
## # … with 15,482 more rows, and 24 more variables: educ <chr>, inc_q <chr>,
## #   emp_in <chr>, fin2 <chr>, fin7 <chr>, fin8 <chr>, fin14a <chr>,
## #   fin14b <chr>, fin19 <chr>, fin26 <chr>, fin28 <chr>, fin32 <chr>,
## #   fin37 <chr>, mobileowner <chr>, account_fin <chr>, account_mob <chr>,
## #   account <chr>, saved <chr>, borrowed <chr>, receive_wages <chr>,
## #   receive_transfers <chr>, receive_pension <chr>,
## #   receive_agriculture <chr>, fin2_b <chr>
```

---
## `_if()`

Example: `mutate_if()`

```r
findex %>%
    transmute_if(.predicate=is.numeric, .funs = list(log=~log(.)
                                                  , abs=~abs(.)))
```

```
## # A tibble: 15,492 x 16
##    pop_adult_log wpid_random_log wgt_log age_log receive_transfe…
##            <dbl>           <dbl>   <dbl>   <dbl>            <dbl>
##  1          16.6           18.8  -0.240    0.693             1.39
##  2          17.5           19.1   0.381    3.26              1.39
##  3          14.1           18.8  -1.20     2.89              1.39
##  4          16.9           18.8  -0.593    3.71              1.39
##  5          15.8           19.0   0.504    3.58              1.39
##  6          13.1           19.1  -1.12     3.66              0   
##  7          17.1            9.54 -0.861    2.71              1.39
##  8          16.2           18.6  -0.193    3.58              1.39
##  9          15.8           18.6  -0.312    2.48              1.39
## 10          14.8           18.6   0.0692   2.08              1.39
## # … with 15,482 more rows, and 11 more variables:
## #   receive_pension_log <dbl>, receive_agriculture_log <dbl>,
## #   fin2_b_log <dbl>, pop_adult_abs <dbl>, wpid_random_abs <dbl>,
## #   wgt_abs <dbl>, age_abs <dbl>, receive_transfers_abs <dbl>,
## #   receive_pension_abs <dbl>, receive_agriculture_abs <dbl>,
## #   fin2_b_abs <dbl>
```
---
## `_at()`

Example: `mutate_at()`

```r
findex %>%
    transmute_at(.vars = vars(contains("fin")), .funs = ~case_when(
        .=="no" ~ 0
        , .=="yes" ~ 1
    ))
```

```
## # A tibble: 15,492 x 12
##     fin2  fin7  fin8 fin14a fin14b fin19 fin26 fin28 fin32 fin37
##    <dbl> <dbl> <dbl>  <dbl>  <dbl> <dbl> <dbl> <dbl> <dbl> <dbl>
##  1     0     0    NA      0      0     0     1     0     0     0
##  2     1     0    NA      0      0     0     0     0     1     0
##  3     1     0    NA      1      1     0     1     1     1     0
##  4     1     1     1      1      1     1     1     1     1     0
##  5     0     0    NA      0      0     0     0     0     1     0
##  6     0     0    NA      0      0     1     0     1     1     1
##  7     1     0    NA      0      0     0     0     0     0     0
##  8     1     0    NA      0      0     0     1     0     0     0
##  9     1     0    NA      0      0     0     0     0     1     0
## 10     0     0    NA      0      0    NA     0     0     0     0
## # … with 15,482 more rows, and 2 more variables: account_fin <dbl>,
## #   fin2_b <dbl>
```
…
```r
(findex_model <- findex %>%
     group_by(economy, regionwb))
```

```
## # A tibble: 15,492 x 32
## # Groups:   economy, regionwb [144]
##    economy economycode regionwb pop_adult wpid_random   wgt female   age
##    <chr>   <chr>       <chr>        <dbl>       <dbl> <dbl> <fct>  <dbl>
##  1 Mozamb… MOZ         Sub-Sah… 15850773    141162711 0.786 Female     2
##  2 Ukraine UKR         Europe … 38149932    197500379 1.46  Female    26
##  3 Gabon   GAB         Sub-Sah…  1269789    146060394 0.301 Male      18
##  4 Venezu… VEN         Latin A… 22762362    147928189 0.553 Female    41
##  5 Rwanda  RWA         Sub-Sah…  7094419    179789279 1.65  Male      36
##  6 Monten… MNE         Europe …   509032.   202078829 0.326 Female    39
##  7 Morocco MAR         Middle … 25550170        13836 0.423 Female    15
##  8 Cambod… KHM         East As… 10814416    117109019 0.825 Male      36
##  9 Bolivia BOL         Latin A…  7400247    116466964 0.732 Female    12
## 10 Centra… CAF         Sub-Sah…  2595884    119279387 1.07  Male       8
## # … with 15,482 more rows, and 24 more variables: educ <fct>, inc_q <fct>,
## #   emp_in <fct>, fin2 <fct>, fin7 <fct>, fin8 <fct>, fin14a <fct>,
## #   fin14b <fct>, fin19 <fct>, fin26 <fct>, fin28 <fct>, fin32 <fct>,
## #   fin37 <fct>, mobileowner <fct>, account_fin <fct>, account_mob <fct>,
## #   account <fct>, saved <fct>, borrowed <fct>, receive_wages <fct>,
## #   receive_transfers <dbl>, receive_pension <dbl>,
## #   receive_agriculture <dbl>, fin2_b <dbl>
```

---
# `purrr`: unleashing the true power

```r
(findex_model <- findex %>%
     group_by(economy, regionwb) %>% 
     nest() # take every peace of data associated with the group
 )
```

```
## # A tibble: 144 x 3
##    economy             regionwb                              data          
##    <chr>               <chr>                                 <list>        
##  1 Mozambique          Sub-Saharan Africa (excluding high i… <tibble [93 ×…
##  2 Ukraine             Europe & Central Asia (excluding hig… <tibble [108 …
##  3 Gabon               Sub-Saharan Africa (excluding high i… <tibble [99 ×…
##  4 Venezuela, RB       Latin America & Caribbean (excluding… <tibble [111 …
##  5 Rwanda              Sub-Saharan Africa (excluding high i… <tibble [99 ×…
##  6 Montenegro          Europe & Central Asia (excluding hig… <tibble [90 ×…
##  7 Morocco             Middle East & North Africa (excludin… <tibble [579 …
##  8 Cambodia            East Asia & Pacific (excluding high … <tibble [154 …
##  9 Bolivia             Latin America & Caribbean (excluding… <tibble [99 ×…
## 10 Central African Re… Sub-Saharan Africa (excluding high i… <tibble [104 …
## # … with 134 more rows
```
…
```r
(findex_model <- findex %>%
    group_nest(economy, regionwb) %>% # Notice that there is a function that does the =
    mutate(model=map(data # loop over each element of the column data
                     , ~glm(fin2_b~pop_adult+female+age+educ # specification
                            , data = . # the dot is interpreted as every value of data
                            , family = binomial() # link function
                            )
                     )
           )
 )
```

```
## # A tibble: 144 x 4
##    economy    regionwb                              data            model  
##    <chr>      <chr>                                 <list>          <list> 
##  1 Afghanist… South Asia                            <tibble [96 × … <S3: g…
##  2 Albania    Europe & Central Asia (excluding hig… <tibble [98 × … <S3: g…
##  3 Algeria    Middle East & North Africa (excludin… <tibble [90 × … <S3: g…
##  4 Argentina  Latin America & Caribbean (excluding… <tibble [114 ×… <S3: g…
##  5 Armenia    Europe & Central Asia (excluding hig… <tibble [106 ×… <S3: g…
##  6 Australia  High income: OECD                     <tibble [92 × … <S3: g…
##  7 Austria    High income: OECD                     <tibble [84 × … <S3: g…
##  8 Azerbaijan Europe & Central Asia (excluding hig… <tibble [103 ×… <S3: g…
##  9 Bahrain    High income: nonOECD                  <tibble [123 ×… <S3: g…
## 10 Bangladesh South Asia                            <tibble [85 × … <S3: g…
## # … with 134 more rows
```
…
```
## # A tibble: 144 x 7
##    economy   regionwb            data      model  coef    stats   fitted   
##    <chr>     <chr>               <list>    <list> <list>  <list>  <list>   
##  1 Afghanis… South Asia          <tibble … <S3: … <tibbl… <tibbl… <tibble …
##  2 Albania   Europe & Central A… <tibble … <S3: … <tibbl… <tibbl… <tibble …
##  3 Algeria   Middle East & Nort… <tibble … <S3: … <tibbl… <tibbl… <tibble …
##  4 Argentina Latin America & Ca… <tibble … <S3: … <tibbl… <tibbl… <tibble …
##  5 Armenia   Europe & Central A… <tibble … <S3: … <tibbl… <tibbl… <tibble …
##  6 Australia High income: OECD   <tibble … <S3: … <tibbl… <tibbl… <tibble …
##  7 Austria   High income: OECD   <tibble … <S3: … <tibbl… <tibbl… <tibble …
##  8 Azerbaij… Europe & Central A… <tibble … <S3: … <tibbl… <tibbl… <tibble …
##  9 Bahrain   High income: nonOE… <tibble … <S3: … <tibbl… <tibbl… <tibble …
## 10 Banglade… South Asia          <tibble … <S3: … <tibbl… <tibbl… <tibble …
## # … with 134 more rows
```
…
Let's extract the log odds gender==female

```r
(findex_model %>%
    mutate(female_coef=map(coef, ~.x %>%
                            dplyr::filter(term=="femaleFemale")
                           )
           )
 )
```

```
## # A tibble: 144 x 8
##    economy  regionwb       data    model  coef   stats  fitted  female_coef
##    <chr>    <chr>          <list>  <list> <list> <list> <list>  <list>     
##  1 Afghani… South Asia     <tibbl… <S3: … <tibb… <tibb… <tibbl… <tibble [1…
##  2 Albania  Europe & Cent… <tibbl… <S3: … <tibb… <tibb… <tibbl… <tibble [1…
##  3 Algeria  Middle East &… <tibbl… <S3: … <tibb… <tibb… <tibbl… <tibble [1…
##  4 Argenti… Latin America… <tibbl… <S3: … <tibb… <tibb… <tibbl… <tibble [1…
##  5 Armenia  Europe & Cent… <tibbl… <S3: … <tibb… <tibb… <tibbl… <tibble [1…
##  6 Austral… High income: … <tibbl… <S3: … <tibb… <tibb… <tibbl… <tibble [1…
##  7 Austria  High income: … <tibbl… <S3: … <tibb… <tibb… <tibbl… <tibble [1…
##  8 Azerbai… Europe & Cent… <tibbl… <S3: … <tibb… <tibb… <tibbl… <tibble [1…
##  9 Bahrain  High income: … <tibbl… <S3: … <tibb… <tibb… <tibbl… <tibble [1…
## 10 Banglad… South Asia     <tibbl… <S3: … <tibb… <tibb… <tibbl… <tibble [1…
## # … with 134 more rows
```
…
```r
(findex_model %>%
    mutate(female_coef=map(coef, ~.x %>%
                            dplyr::filter(term=="femaleFemale") %>%
                            mutate(min_int=estimate-1.96*std.error
                                   , max_int=estimate+1.96*std.error) %>% 
                            dplyr::select(estimate, p.value, contains("int")
                                          )
                           )
           )
 )
```

```
## # A tibble: 144 x 8
##    economy  regionwb       data    model  coef   stats  fitted  female_coef
##    <chr>    <chr>          <list>  <list> <list> <list> <list>  <list>     
##  1 Afghani… South Asia     <tibbl… <S3: … <tibb… <tibb… <tibbl… <tibble [1…
##  2 Albania  Europe & Cent… <tibbl… <S3: … <tibb… <tibb… <tibbl… <tibble [1…
##  3 Algeria  Middle East &… <tibbl… <S3: … <tibb… <tibb… <tibbl… <tibble [1…
##  4 Argenti… Latin America… <tibbl… <S3: … <tibb… <tibb… <tibbl… <tibble [1…
##  5 Armenia  Europe & Cent… <tibbl… <S3: … <tibb… <tibb… <tibbl… <tibble [1…
##  6 Austral… High income: … <tibbl… <S3: … <tibb… <tibb… <tibbl… <tibble [1…
##  7 Austria  High income: … <tibbl… <S3: … <tibb… <tibb… <tibbl… <tibble [1…
##  8 Azerbai… Europe & Cent… <tibbl… <S3: … <tibb… <tibb… <tibbl… <tibble [1…
##  9 Bahrain  High income: … <tibbl… <S3: … <tibb… <tibb… <tibbl… <tibble [1…
## 10 Banglad… South Asia     <tibbl… <S3: … <tibb… <tibb… <tibbl… <tibble [1…
## # … with 134 more rows
```
…
```
## # A tibble: 144 x 3
##    economy     regionwb                                     female_coef    
##    <chr>       <chr>                                        <list>         
##  1 Afghanistan South Asia                                   <tibble [1 × 4…
##  2 Albania     Europe & Central Asia (excluding high incom… <tibble [1 × 4…
##  3 Algeria     Middle East & North Africa (excluding high … <tibble [1 × 4…
##  4 Argentina   Latin America & Caribbean (excluding high i… <tibble [1 × 4…
##  5 Armenia     Europe & Central Asia (excluding high incom… <tibble [1 × 4…
##  6 Australia   High income: OECD                            <tibble [1 × 4…
##  7 Austria     High income: OECD                            <tibble [1 × 4…
##  8 Azerbaijan  Europe & Central Asia (excluding high incom… <tibble [1 × 4…
##  9 Bahrain     High income: nonOECD                         <tibble [1 × 4…
## 10 Bangladesh  South Asia                                   <tibble [1 × 4…
## # … with 134 more rows
```
…
```
## # A tibble: 144 x 6
##    economy   regionwb                  estimate p.value   min_int   max_int
##    <chr>     <chr>                        <dbl>   <dbl>     <dbl>     <dbl>
##  1 Afghanis… South Asia               -2.97e-14  1       -1.56e+5   1.56e+5
##  2 Albania   Europe & Central Asia (… -1.06e- 2  0.986   -1.19e+0   1.17e+0
##  3 Algeria   Middle East & North Afr… -6.69e- 1  0.238   -1.78e+0   4.41e-1
##  4 Argentina Latin America & Caribbe…  3.86e- 1  0.336   -4.00e-1   1.17e+0
##  5 Armenia   Europe & Central Asia (… -2.54e- 1  0.595   -1.19e+0   6.80e-1
##  6 Australia High income: OECD         3.09e+ 0  0.123   -8.38e-1   7.02e+0
##  7 Austria   High income: OECD        -2.26e- 1  0.865   -2.84e+0   2.39e+0
##  8 Azerbaij… Europe & Central Asia (…  8.16e- 1  0.118   -2.07e-1   1.84e+0
##  9 Bahrain   High income: nonOECD     -1.44e+ 0  0.0178  -2.64e+0  -2.50e-1
## 10 Banglade… South Asia               -1.83e+ 0  0.103   -4.03e+0   3.68e-1
## # … with 134 more rows
```
…
The natural question is "why", but for the sake of the exercise we are going to truncate the data and keep the record that lie between the 10% and 90% percentile of the lower confidence interval

```r
(findex_model_coef <- findex_model %>%
    filter_at(.vars = vars(min_int)
              , .vars_predicate = any_vars(between(., quantile(., 0.1)
                                                   , quantile(., 0.9)
                                                   )
                                           )
              ) )
```

```
## # A tibble: 114 x 6
##    economy   regionwb                      estimate p.value min_int max_int
##    <chr>     <chr>                            <dbl>   <dbl>   <dbl>   <dbl>
##  1 Albania   Europe & Central Asia (exclu…  -0.0106  0.986   -1.19    1.17 
##  2 Algeria   Middle East & North Africa (…  -0.669   0.238   -1.78    0.441
##  3 Armenia   Europe & Central Asia (exclu…  -0.254   0.595   -1.19    0.680
##  4 Australia High income: OECD               3.09    0.123   -0.838   7.02 
##  5 Austria   High income: OECD              -0.226   0.865   -2.84    2.39 
##  6 Bahrain   High income: nonOECD           -1.44    0.0178  -2.64   -0.250
##  7 Belarus   Europe & Central Asia (exclu…   0.0664  0.898   -0.947   1.08 
##  8 Belgium   High income: OECD               0.0158  0.989   -2.16    2.19 
##  9 Benin     Sub-Saharan Africa (excludin…  -0.0779  0.912   -1.46    1.30 
## 10 Bolivia   Latin America & Caribbean (e…  -0.0690  0.888   -1.03    0.888
## # … with 104 more rows
```
…
