Workshop: Data science with R (ZEW)
…
```r
wdi <- WDI::WDI(country = "all", indicator = c("unemp"="SL.UEM.TOTL.ZS"
                                                , "secon_enrol"="SE.SEC.ENRR"
                                                , "gov_exp_ed"="SE.XPD.TOTL.GD.ZS"
                                                , "fert_rate"="SP.DYN.TFRT.IN"
                                                , "life_exp"="SP.DYN.LE00.MA.IN"
                                                , "gni_pc"="NY.GNP.PCAP.CD")
                 , start = 2014
                 , end = 2018) %>% 
    as_tibble()
```

```
## # A tibble: 1,320 x 9
##    iso2c country  year unemp secon_enrol gov_exp_ed fert_rate life_exp
##    <chr> <chr>   <int> <dbl>       <dbl>      <dbl>     <dbl>    <dbl>
##  1 1A    Arab W…  2014 10.3         70.2      NA         3.41     69.1
##  2 1A    Arab W…  2015 10.3         70.6      NA         3.37     69.3
##  3 1A    Arab W…  2016 10.0         70.9      NA         3.33     69.5
##  4 1A    Arab W…  2017  9.93        71.1      NA        NA        NA  
##  5 1A    Arab W…  2018  9.81        NA        NA        NA        NA  
##  6 1W    World    2014  5.44        76.3       4.72      2.46     69.6
##  7 1W    World    2015  5.45        76.5       4.81      2.45     69.8
##  8 1W    World    2016  5.53        76.8      NA         2.44     70.0
##  9 1W    World    2017  5.49        76.6      NA        NA        NA  
## 10 1W    World    2018  5.38        NA        NA        NA        NA  
## # … with 1,310 more rows, and 1 more variable: gni_pc <dbl>
```

---
# Unsupervised learning: Clustering (data segmentation)
## Study case: World Development Indicators

```r
wdi %>% 
  group_by(country) %>% 
  summarise_at(.vars = vars(unemp:gni_pc)
               , .funs = ~mean(., na.rm = T)
               )
```

```
## # A tibble: 264 x 7
##    country           unemp secon_enrol gov_exp_ed fert_rate life_exp gni_pc
##    <chr>             <dbl>       <dbl>      <dbl>     <dbl>    <dbl>  <dbl>
##  1 Afghanistan        8.81        53.6       3.76      4.81     62.0   595 
##  2 Albania           15.8         95.8       3.19      1.71     76.2  4392.
##  3 Algeria           10.4        NaN       NaN         2.84     74.7  4652.
##  4 American Samoa   NaN          NaN       NaN       NaN       NaN     NaN 
##  5 Andorra          NaN          NaN         3.18    NaN       NaN     NaN 
##  6 Angola             7.80        50.5     NaN         5.77     58.4  4218.
##  7 Antigua and Bar… NaN           93.6     NaN         2.06     73.7 12815 
##  8 Arab World        10.1         70.7     NaN         3.37     69.3  6811.
##  9 Argentina          7.96       107.        5.57      2.31     72.6 12488.
## 10 Armenia           18.1         86.0       2.60      1.62     71.1  3985 
## # … with 254 more rows
```
---
# Unsupervised learning: Clustering (data segmentation)
## Study case: World Development Indicators

```r
wdi %>% 
  group_by(country) %>% 
  summarise_at(.vars = vars(unemp:gni_pc)
               , .funs = ~mean(., na.rm = T)
               ) %>% 
  filter(complete.cases(.)) # filter and keep complete cases only
```

```
## # A tibble: 155 x 7
##    country     unemp secon_enrol gov_exp_ed fert_rate life_exp gni_pc
##    <chr>       <dbl>       <dbl>      <dbl>     <dbl>    <dbl>  <dbl>
##  1 Afghanistan  8.81        53.6       3.76      4.81     62.0   595 
##  2 Albania     15.8         95.8       3.19      1.71     76.2  4392.
##  3 Argentina    7.96       107.        5.57      2.31     72.6 12488.
##  4 Armenia     18.1         86.0       2.60      1.62     71.1  3985 
##  5 Australia    5.78       156.        5.25      1.81     80.4 57708.
##  6 Austria      5.65       100.        5.45      1.48     78.8 47335 
##  7 Azerbaijan   4.99        91.7       2.83      1.95     68.9  5772.
##  8 Bahrain      1.21       102.        2.60      2.06     75.9 21538.
##  9 Bangladesh   4.39        66.6       1.54      2.13     70.6  1265 
## 10 Barbados    10.5        108.        5.33      1.80     73.3 15365 
## # … with 145 more rows
```
…
