Workshop: Data science with R (ZEW)
…
<img src="ws_7_files/figure-html/unnamed-chunk-4-1.png" width="80%" style="display: block; margin: auto;" />

---
# Imputation

.pl[

```r
(miss <- map_dbl(data0, .f = ~is.na(.x) %>% sum/913) %>% enframe() %>% arrange(desc(value)))
```

```
## # A tibble: 53 x 2
##    name            value
##    <chr>           <dbl>
##  1 otherstatus    0.591 
##  2 other_position 0.286 
##  3 vis2           0.128 
##  4 uoc_position   0.124 
##  5 peu3           0.106 
##  6 vis1           0.0789
##  7 im3            0.0624
##  8 jr2            0.0581
##  9 bi2            0.0471
## 10 inc4           0.0460
## # … with 43 more rows
```
…
```r
(wiki <- read_rds("datasets/session_7/wiki4HE_imp.rds")) %>% 
  naniar::vis_miss()
```

<img src="ws_7_files/figure-html/unnamed-chunk-8-1.png" width="80%" style="display: block; margin: auto;" />

---

```r
wiki %>% select(ph_d, gender, university, userwiki, yearsexp, age, matches(match = "[0-9]"))
```

```
## # A tibble: 913 x 49
##     ph_d gender university userwiki yearsexp   age   bi1   bi2  enj1  enj2
##    <dbl>  <dbl>      <dbl>    <dbl>    <dbl> <dbl> <dbl> <dbl> <dbl> <dbl>
##  1     1      0          1        0       14    40     2     3     4     4
##  2     1      0          1        0       18    42     2     2     3     4
##  3     1      0          1        0       13    37     1     1     3     3
##  4     0      0          1        0       13    40     3     3     4     3
##  5     0      0          1        1        8    51     5     5     4     4
##  6     0      0          1        0       17    47     4     4     3     3
##  7     0      0          1        0       11    43     3     4     5     5
##  8     0      0          1        0       12    55     3     4     4     3
##  9     1      0          1        0       14    54     4     3     5     5
## 10     1      0          1        0       25    50     5     5     5     4
## # … with 903 more rows, and 39 more variables: exp1 <dbl>, exp2 <dbl>,
## #   exp3 <dbl>, exp4 <dbl>, exp5 <dbl>, im1 <dbl>, im2 <dbl>, im3 <dbl>,
## #   inc1 <dbl>, inc2 <dbl>, inc3 <dbl>, inc4 <dbl>, jr1 <dbl>, jr2 <dbl>,
## #   peu1 <dbl>, peu2 <dbl>, peu3 <dbl>, pf1 <dbl>, pf2 <dbl>, pf3 <dbl>,
## #   pu1 <dbl>, pu2 <dbl>, pu3 <dbl>, qu1 <dbl>, qu2 <dbl>, qu3 <dbl>,
## #   qu4 <dbl>, qu5 <dbl>, sa1 <dbl>, sa2 <dbl>, sa3 <dbl>, use1 <dbl>,
## #   use2 <dbl>, use3 <dbl>, use4 <dbl>, use5 <dbl>, vis1 <dbl>,
## #   vis2 <dbl>, vis3 <dbl>
```
